<svg width="1330" height="112" viewBox="0 0 1330 112" fill="none" xmlns="http://www.w3.org/2000/svg">
<path d="M238.797 36.2923C236.792 35.9789 235.257 37.848 233.694 39.0288C230.064 41.7765 224.624 42.0731 221.235 40.8028C215.874 38.7993 214.081 32.2855 213.605 30.5507C211.073 21.3618 216.507 13.281 218.316 10.5893C220.462 7.40509 223.767 2.4805 229.38 1.22137C232.557 0.510666 233.134 1.71943 240.568 1.93768C247.514 2.13914 248.472 1.12624 251.525 2.08318C256.309 3.58294 258.965 7.64572 260.651 10.2199C261.85 12.0499 269.2 23.2925 263.956 33.248C262.035 36.8967 257.704 41.7205 252.522 41.8604C249.783 41.9332 244.17 40.7636 241.044 37.6521C240.646 37.2548 239.935 36.477 238.809 36.2979L238.797 36.2923Z" fill="#E23B3B" stroke="#9C1A35" stroke-miterlimit="10"/>
<path d="M238.164 34.8821C237.666 35.3969 237.318 36.0293 237.089 36.7176C236.865 37.4059 236.792 38.167 236.926 38.9169C237.044 39.6668 237.397 40.3775 237.884 40.9371C238.377 41.4911 238.999 41.9052 239.688 42.1067C239.273 41.5247 238.893 40.993 238.607 40.439C238.327 39.885 238.131 39.3198 238.03 38.7322C237.929 38.1446 237.907 37.529 237.951 36.8967C237.985 36.2587 238.091 35.604 238.164 34.8933V34.8821Z" fill="#774E20"/>
<g style="mix-blend-mode:multiply">
<path d="M215.437 35.1507C225.733 36.5833 233.963 35.4417 239.178 34.2945C245.817 32.8283 251.48 31.502 256.32 26.5774C260.46 22.3635 262.085 17.4669 262.78 14.5066C263.698 15.9168 267.099 21.5073 265.642 28.4353C264.354 34.5687 259.458 40.814 253.559 41.5806C250.786 41.9444 248.136 41.049 246.55 40.5118C241.475 38.7938 241.083 36.4266 238.114 36.3706C234.372 36.2979 234.047 40.0361 228.747 41.3008C227.336 41.6366 223.168 42.3697 219.448 39.941C217.095 38.4076 215.947 36.2699 215.442 35.1563L215.437 35.1507Z" fill="#E23B3B"/>
</g>
<path d="M239.682 5.72066C236.948 5.77662 234.534 5.84378 234.103 5.86616C227.935 6.11799 222.932 11.826 222.613 12.201C218.742 16.7282 218.283 21.8879 218.014 24.9433C217.577 29.8847 218.652 33.2088 218.226 33.304C217.717 33.4159 215.319 28.7599 215.364 23.2309C215.414 16.7506 218.775 12.0387 220.131 10.2535C222.703 6.86227 225.436 3.25837 229.811 2.53647C234.489 1.7698 236.355 5.07151 242.685 4.24888C246.22 3.79 248.718 2.36299 248.881 2.72674C249.032 3.0681 246.993 4.64621 244.45 5.34572C243.251 5.67589 242.438 5.6703 239.682 5.72626V5.72066Z" fill="#EF7C5F"/>
<g style="mix-blend-mode:multiply">
<path d="M244.018 2.62039C244.108 2.94497 242.876 3.65008 241.727 3.95227C239.733 4.4783 238.08 3.7676 237.582 3.52137C236.921 3.20239 235.851 2.53645 235.963 2.23426C236.086 1.8873 237.615 2.41893 240.349 2.51966C242.707 2.6092 243.934 2.30141 244.018 2.61479V2.62039Z" fill="#E23B3B"/>
</g>
<path d="M230.932 3.76759C230.618 3.06807 227.481 3.15761 225.582 4.88681C224.165 6.17392 223.655 8.17174 223.974 8.38439C224.198 8.53549 224.658 7.67928 226.047 6.9294C227.576 6.10677 228.249 6.47611 229.481 5.61991C230.12 5.17222 231.145 4.23207 230.938 3.76199L230.932 3.76759Z" fill="white"/>
<path d="M223.677 8.86008C223.582 8.72018 223.128 8.78733 222.831 9.02237C222.428 9.34135 222.299 9.97931 222.461 10.0912C222.629 10.2087 223.117 9.78344 223.38 9.47006C223.498 9.33016 223.772 8.99999 223.677 8.85449V8.86008Z" fill="white"/>
<path d="M446.523 24.9465C448.57 25.2742 450.148 23.3649 451.746 22.158C455.465 19.359 461.027 19.0625 464.49 20.3683C469.969 22.4285 471.787 29.0929 472.271 30.8669C474.844 40.2678 469.271 48.5137 467.412 51.2606C465.214 54.5121 461.819 59.5377 456.085 60.8123C452.835 61.5355 452.246 60.2973 444.648 60.058C437.544 59.8343 436.565 60.8748 433.446 59.8863C428.561 58.3412 425.847 54.1792 424.134 51.5467C422.915 49.6738 415.421 38.1608 420.806 27.9951C422.78 24.2702 427.217 19.3486 432.519 19.2186C435.32 19.1509 441.054 20.3579 444.247 23.547C444.653 23.9528 445.377 24.754 446.533 24.9361L446.523 24.9465Z" fill="#E23B3B" stroke="#9C1A35" stroke-miterlimit="10"/>
<g style="mix-blend-mode:multiply">
<path d="M466.397 21.3619C467.522 23.9528 468.73 27.865 467.042 31.0385C464.991 34.8988 460.845 33.5669 455.903 37.5833C450.611 41.8857 452.559 45.798 445.987 52.3947C443.711 54.6786 441.398 56.9052 437.956 57.5087C430.514 58.8093 424.197 51.2554 423.431 50.3137C426.29 55.9116 429.571 58.1278 432.019 59.1215C435.409 60.4949 436.784 59.3556 445.216 59.9435C452.575 60.4585 453.439 61.4626 456.517 60.6406C461.142 59.4076 463.876 55.9012 465.98 53.2011C467.735 50.9432 475.224 41.329 471.954 30.3986C470.693 26.1794 468.256 23.1932 466.397 21.3619Z" fill="#E23B3B"/>
</g>
<path d="M456.866 27.6725C457.501 28.302 456.626 30.7576 454.955 32.3183C452.168 34.9144 447.309 34.9352 443.789 33.8115C440.185 32.6617 439.445 30.7836 436.961 31.1738C435.164 31.4599 433.321 33.0363 432.388 34.7843C431.54 36.3815 431.789 37.5416 430.508 38.8266C430.149 39.1856 429.128 40.2105 428.055 40.1117C425.941 39.914 424.134 35.3722 424.389 31.4912C424.613 28.0107 426.608 23.7967 430.352 22.4024C430.993 22.1631 432.946 21.4244 435.065 22.1111C438.122 23.0996 438.013 25.9193 441.513 28.2968C441.961 28.6038 444.518 30.2946 447.835 30.3674C452.871 30.4767 455.954 26.7777 456.861 27.6777L456.866 27.6725Z" fill="#EF7C5F"/>
<path d="M431.144 27.8755C428.508 30.6484 427.977 32.0843 427.404 31.8762C426.634 31.59 426.524 28.5986 427.8 26.4448C427.993 26.117 428.993 24.4991 430.909 23.9372C432.196 23.5574 434.018 23.625 434.248 24.3482C434.446 24.9829 433.279 25.6384 431.149 27.8755H431.144Z" fill="white"/>
<g style="mix-blend-mode:multiply">
<path d="M443.346 24.1661C442.893 24.7228 443.778 26.6685 445.325 27.4124C446.96 28.2032 448.684 27.3344 449.382 26.9806C451.345 25.9922 452.699 24.0412 452.371 23.599C452.038 23.1516 450.356 24.7956 447.471 24.7904C445.059 24.7904 443.773 23.6302 443.346 24.1609V24.1661Z" fill="#E23B3B"/>
</g>
<path d="M447.168 26.3875C447.658 25.8517 448.007 25.2066 448.226 24.5042C448.444 23.8019 448.522 23.0319 448.392 22.2724C448.273 21.5128 447.918 20.7949 447.434 20.2226C446.944 19.6503 446.32 19.2237 445.632 19C446.07 19.5775 446.465 20.1185 446.767 20.6856C447.064 21.2527 447.267 21.8406 447.366 22.4492C447.47 23.0579 447.486 23.6926 447.434 24.3481C447.382 25.0037 447.267 25.6696 447.168 26.3875Z" fill="#774E20"/>
<path d="M652.04 45.319C654.067 45.0626 655.032 42.8218 656.208 41.2424C658.954 37.5659 664.139 35.7507 667.778 36.0276C673.527 36.4685 677.089 42.268 678.039 43.8114C683.07 52.0004 680.082 61.3379 679.086 64.4504C677.906 68.1373 676.083 73.8239 671.012 76.6185C668.137 78.1978 667.239 77.1877 659.981 79.0644C653.2 80.8181 652.558 82.0641 649.335 81.9974C644.284 81.8846 640.567 78.6952 638.216 76.68C636.543 75.2443 626.267 66.4195 628.551 55.318C629.387 51.2466 632.226 45.3651 637.2 43.7806C639.833 42.9397 645.593 42.4987 649.494 44.637C649.987 44.9087 650.895 45.4625 652.04 45.319Z" fill="#E23B3B" stroke="#9C1A35" stroke-miterlimit="10"/>
<g style="mix-blend-mode:multiply">
<path d="M669.852 36.4429C671.633 38.5811 673.855 41.9552 673.142 45.4164C672.269 49.6313 667.978 49.5185 664.416 54.6873C660.597 60.22 663.522 63.3838 659.134 71.4395C657.614 74.2238 656.038 76.9723 652.948 78.4952C646.27 81.7821 638.201 76.3775 637.215 75.7006C641.465 80.213 645.187 81.3975 647.774 81.659C651.362 82.0231 652.348 80.5668 660.489 78.7926C667.593 77.2492 668.686 77.9568 671.371 76.3313C675.406 73.8905 677.023 69.814 678.265 66.681C679.302 64.0658 683.732 52.9028 677.613 43.4627C675.252 39.8169 672.12 37.6633 669.852 36.4429Z" fill="#E23B3B"/>
</g>
<path d="M662.578 45.0472C663.354 45.4677 663.205 48.0367 662.055 49.9698C660.14 53.1951 655.546 54.554 651.907 54.4617C648.18 54.3694 646.963 52.7952 644.72 53.8515C643.098 54.6155 641.794 56.6204 641.394 58.5279C641.03 60.2714 641.589 61.302 640.732 62.8711C640.491 63.3121 639.808 64.5633 638.766 64.7632C636.708 65.1581 633.746 61.3584 632.909 57.6203C632.16 54.2617 632.878 49.7288 636.035 47.3752C636.574 46.9701 638.222 45.7343 640.414 45.7959C643.581 45.8882 644.258 48.5853 648.226 49.8724C648.734 50.0365 651.624 50.9287 654.781 50.0826C659.576 48.7956 661.47 44.4473 662.578 45.0472Z" fill="#EF7C5F"/>
<path d="M638.304 52.3387C636.579 55.6871 636.471 57.1947 635.871 57.1537C635.065 57.0973 634.131 54.2975 634.741 51.9029C634.834 51.5388 635.332 49.7339 636.99 48.6724C638.104 47.9597 639.844 47.5187 640.26 48.1391C640.619 48.6827 639.695 49.6262 638.304 52.3336V52.3387Z" fill="white"/>
<g style="mix-blend-mode:multiply">
<path d="M648.822 45.4574C648.544 46.1086 649.92 47.7085 651.593 47.9853C653.359 48.2776 654.75 46.9854 655.315 46.4573C656.896 44.9805 657.64 42.7602 657.204 42.4372C656.763 42.109 655.628 44.1242 652.897 44.919C650.613 45.5805 649.078 44.8421 648.822 45.4625V45.4574Z" fill="#E23B3B"/>
</g>
<path d="M653.051 46.5034C653.364 45.8624 653.518 45.1548 653.534 44.4267C653.549 43.7037 653.405 42.9499 653.072 42.273C652.748 41.5859 652.214 41.0065 651.598 40.5963C650.977 40.1912 650.269 39.9605 649.555 39.9399C650.13 40.3655 650.654 40.7655 651.095 41.2219C651.532 41.6782 651.886 42.1756 652.153 42.7243C652.42 43.273 652.61 43.8678 652.743 44.4985C652.877 45.1343 652.948 45.7958 653.056 46.5034H653.051Z" fill="#774E20"/>
<path d="M857.594 68.3064C858.62 66.7466 857.635 64.7544 857.234 62.999C856.306 58.922 858.12 54.2478 860.47 51.8953C864.19 48.1683 870.333 49.1361 871.966 49.3935C880.639 50.7628 885.354 58.3763 886.921 60.9142C888.781 63.9153 891.657 68.5535 890.585 73.727C889.977 76.656 888.745 76.6818 885.741 82.8231C882.938 88.5628 883.422 89.7468 881.464 91.9398C878.393 95.3733 873.971 96.058 871.178 96.4904C869.189 96.7992 856.966 98.6885 850.607 90.519C848.277 87.523 845.871 82.0715 847.721 77.6804C848.7 75.3588 851.807 71.1016 855.61 69.6705C856.09 69.4903 857.017 69.1866 857.594 68.3115V68.3064Z" fill="#E23B3B" stroke="#9C1A35" stroke-miterlimit="10"/>
<g style="mix-blend-mode:multiply">
<path d="M870.085 53.6558C879.078 56.4665 881.392 67.982 881.659 69.3153C882.118 71.6061 882.164 73.9689 882.185 74.9212C882.262 78.3394 882.335 81.4537 880.959 84.7329C879.516 88.1664 877.156 90.1741 876.135 91.044C868.802 97.278 858.362 95.4814 856.661 95.1622C860.573 96.6242 863.943 96.9537 866.133 97C866.133 97 870.827 96.9537 876.486 95.1262C878.13 94.596 879.031 94.2099 879.907 93.4069C880.696 92.681 881.108 91.9346 881.309 91.5691C883.484 87.5796 884.03 85.1447 885.761 82.2156C887.55 79.1939 888.843 78.1798 890.131 74.6896C890.291 74.2572 890.415 73.7836 890.508 73.2122C891.203 68.9704 889.333 65.4288 887.89 62.7107C887.756 62.4585 887.524 62.0055 887.204 61.465C885.968 59.3698 881.268 51.4011 872.538 49.517C870.642 49.1052 866.993 48.3176 863.242 50.2171C860.459 51.6276 858.934 53.8514 858.243 55.0354C860.253 54.0368 865.004 52.0652 870.091 53.6558H870.085Z" fill="#E23B3B"/>
</g>
<path d="M862.804 72.4709C862.165 74.2932 860.965 75.4411 859.609 76.7178C856.564 79.5851 855.038 79.1012 853.42 81.1449C850.833 84.4137 852.446 88.5628 851.529 88.743C850.488 88.9437 847.242 83.796 848.788 79.1939C849.442 77.248 850.638 76.0074 851.369 75.297C854.868 71.8995 858.017 73.1144 859.996 70.3654C861.908 67.7092 860.588 64.3117 861.135 64.2345C861.768 64.1418 864.165 68.5792 862.799 72.4709H862.804Z" fill="#EF7C5F"/>
<g style="mix-blend-mode:multiply">
<path d="M855.78 70.6279C856.069 71.2045 857.996 71.1993 859.181 70.2058C860.434 69.1557 860.356 67.4209 860.33 66.7208C860.243 64.7492 859.14 62.9166 858.661 63.0247C858.171 63.1328 858.898 65.1198 857.831 67.4775C856.934 69.4543 855.512 70.0771 855.79 70.6228L855.78 70.6279Z" fill="#E23B3B"/>
</g>
<path d="M859.016 68.3167C858.769 67.7041 858.377 67.1739 857.883 66.7209C857.388 66.273 856.775 65.923 856.1 65.748C855.425 65.5626 854.698 65.5884 854.044 65.784C853.389 65.9899 852.812 66.3503 852.379 66.8496C853.023 66.7209 853.616 66.6025 854.188 66.5819C854.76 66.5562 855.306 66.6076 855.837 66.7466C856.368 66.8856 856.888 67.1018 857.409 67.3798C857.934 67.6526 858.439 67.9872 859.011 68.3167H859.016Z" fill="#774E20"/>
<path d="M856.873 73.238C856.733 72.8673 853.585 73.0115 851.328 74.9831C849.143 76.898 848.535 79.8786 848.87 80.0639C849.138 80.2132 849.89 78.499 852.132 76.4914C854.76 74.1337 856.986 73.5623 856.867 73.238H856.873Z" fill="white"/>
<path d="M860.068 55.9929C860.166 56.065 859.651 56.6982 859.207 58.0572C858.939 58.8808 858.909 59.3287 858.826 59.3235C858.708 59.3132 858.527 58.3763 858.847 57.4806C859.182 56.5386 859.965 55.9209 860.068 55.9981V55.9929Z" fill="white"/>
<path d="M1096.83 80.5725C1095.54 79.1934 1096.19 77.0389 1096.3 75.2175C1096.53 70.9969 1093.94 66.6463 1091.2 64.6895C1086.87 61.5983 1080.91 63.5915 1079.32 64.1223C1070.91 66.9377 1067.49 75.3163 1066.35 78.111C1065 81.4156 1062.91 86.5208 1064.85 91.5012C1065.95 94.3218 1067.18 94.1345 1071.21 99.7549C1074.97 105.006 1074.68 106.27 1077 108.128C1080.64 111.037 1085.16 110.98 1088.02 110.939C1090.05 110.913 1102.56 110.746 1107.52 101.54C1109.34 98.1624 1110.82 92.3234 1108.24 88.2538C1106.88 86.1045 1103.06 82.3835 1099.03 81.5873C1098.52 81.4884 1097.55 81.3427 1096.82 80.5673L1096.83 80.5725Z" fill="#E23B3B" stroke="#9C1A35" stroke-miterlimit="10"/>
<g style="mix-blend-mode:multiply">
<path d="M1094.06 68.0462C1094.94 71.1166 1094.89 73.5626 1094.63 75.3112C1094.23 78.0954 1093.33 78.9645 1093.75 80.8015C1094.38 83.5493 1096.89 83.8043 1098.14 86.1149C1099.99 89.5444 1097.84 95.1909 1094.9 98.074C1087.98 104.865 1071.71 101.144 1067.02 93.0676C1064.28 88.3475 1065.64 82.3836 1064.95 82.3732C1064.43 82.3627 1063.54 85.8079 1064.29 89.2842C1064.4 89.8151 1064.7 90.9964 1065.62 92.7398C1067.34 95.9871 1068.98 96.9187 1071.18 99.4947C1074.93 103.882 1073.84 105.453 1076.72 107.91C1079.28 110.085 1082.2 110.491 1084.35 110.788C1092.83 111.959 1104.43 108.29 1108.29 99.7133C1108.85 98.4799 1110.74 94.2802 1109.14 89.9712C1108.13 87.265 1106.09 85.4696 1105.46 84.9232C1102.79 82.6177 1099.96 81.733 1099.96 81.733C1098.24 81.197 1097.24 81.2647 1096.55 80.3175C1096.22 79.8648 1096.11 79.3756 1096.11 76.9088C1096.11 73.7811 1096.3 73.4273 1096.15 72.3916C1096 71.3092 1095.54 69.7896 1094.07 68.0514L1094.06 68.0462Z" fill="#E23B3B"/>
</g>
<path d="M1093.45 82.4096C1093.04 82.8467 1090.77 81.9464 1089.39 80.3852C1086.55 77.169 1089.29 73.1619 1087.1 71.1739C1085.36 69.6075 1081.89 70.5338 1076.36 71.8817C1072.83 72.7455 1071.23 73.6511 1070.87 73.1202C1070.3 72.2876 1073.11 68.6915 1076.85 66.6984C1077.65 66.2768 1084.68 62.6391 1089.36 66.1675C1091.82 68.0202 1092.94 71.3404 1093.03 73.828C1093.12 76.0502 1091.8 77.7883 1092.72 80.3384C1093.12 81.4364 1093.7 82.1338 1093.44 82.4096H1093.45Z" fill="#EF7C5F"/>
<path d="M1084.75 66.6463C1084.67 65.9385 1081.85 65.1527 1079.69 66.1675C1078.07 66.9221 1077.07 68.5562 1077.29 68.832C1077.45 69.0246 1078.09 68.3949 1079.54 68.1138C1081.12 67.8016 1081.61 68.3168 1082.95 67.8953C1083.64 67.6767 1084.81 67.1251 1084.75 66.6463Z" fill="white"/>
<path d="M1095.11 81.0462C1095.77 81.1242 1096.44 81.0305 1097.08 80.8172C1097.71 80.5986 1098.32 80.2239 1098.8 79.7087C1099.29 79.1987 1099.62 78.543 1099.77 77.8716C1099.9 77.1951 1099.86 76.503 1099.62 75.8837C1099.43 76.5186 1099.24 77.0962 1098.99 77.6166C1098.73 78.1371 1098.43 78.595 1098.04 79.0009C1097.66 79.4069 1097.22 79.7607 1096.72 80.0886C1096.22 80.4217 1095.68 80.7079 1095.11 81.0514L1095.11 81.0462Z" fill="#774E20"/>
<path d="M1076.7 68.9621C1076.62 68.8216 1076.2 68.858 1075.9 69.0558C1075.51 69.3264 1075.35 69.9093 1075.49 70.0238C1075.63 70.1435 1076.12 69.7844 1076.38 69.5138C1076.5 69.3941 1076.78 69.1026 1076.7 68.9673V68.9621Z" fill="white"/>
</svg>
